<?xml version="1.0" encoding="UTF-8" standalone="no"?>
<!-- Created with Inkscape (http://www.inkscape.org/) -->

<svg
   width="1.4022917mm"
   height="2.1431251mm"
   viewBox="0 0 1.4022917 2.1431251"
   version="1.1"
   id="svg829"
   inkscape:version="1.1 (c4e8f9e, 2021-05-24)"
   sodipodi:docname="e.svg"
   xmlns:inkscape="http://www.inkscape.org/namespaces/inkscape"
   xmlns:sodipodi="http://sodipodi.sourceforge.net/DTD/sodipodi-0.dtd"
   xmlns="http://www.w3.org/2000/svg"
   xmlns:svg="http://www.w3.org/2000/svg">
  <sodipodi:namedview
     id="namedview831"
     pagecolor="#ffffff"
     bordercolor="#666666"
     borderopacity="1.0"
     inkscape:pageshadow="2"
     inkscape:pageopacity="0.0"
     inkscape:pagecheckerboard="0"
     inkscape:document-units="mm"
     showgrid="false"
     fit-margin-top="0"
     fit-margin-left="0"
     fit-margin-right="0"
     fit-margin-bottom="0"
     inkscape:zoom="77.654322"
     inkscape:cx="2.6527822"
     inkscape:cy="4.0499999"
     inkscape:window-width="1440"
     inkscape:window-height="855"
     inkscape:window-x="0"
     inkscape:window-y="23"
     inkscape:window-maximized="1"
     inkscape:current-layer="layer1" />
  <defs
     id="defs826" />
  <g
     inkscape:label="Livello 1"
     inkscape:groupmode="layer"
     id="layer1"
     transform="translate(-104.45674,-147.19159)">
    <g
       id="g960"
       transform="matrix(0.26458333,0,0,0.26458333,102.94862,146.47722)">
      <g
         id="XMLID_3_">
	<path
   id="XMLID_6_"
   d="m 8.5,4.4 c 0.3,0 0.7,0.1 1,0.2 0.3,0.1 0.5,0.3 0.8,0.5 0.2,0.2 0.4,0.5 0.5,0.8 0.1,0.3 0.2,0.7 0.2,1.1 0,0.1 0,0.2 0,0.2 0,0 -0.1,0 -0.1,0 H 6.3 v 0.1 c 0,0.5 0.1,0.9 0.2,1.2 0.1,0.5 0.2,0.8 0.4,1 0.2,0.2 0.4,0.4 0.7,0.5 0.3,0.1 0.6,0.2 0.9,0.2 0.3,0 0.6,0 0.8,-0.1 C 9.5,10 9.7,10 9.9,9.9 c 0.2,-0.1 0.3,-0.2 0.4,-0.2 0.1,-0.1 0.2,-0.1 0.2,-0.1 0.1,0 0.1,0 0.1,0.1 l 0.2,0.2 c -0.1,0.1 -0.2,0.2 -0.4,0.3 -0.2,0.1 -0.3,0.2 -0.5,0.3 -0.2,0.1 -0.4,0.1 -0.6,0.2 -0.2,0 -0.5,0.1 -0.7,0.1 C 8.2,10.8 7.8,10.7 7.5,10.6 7,10.3 6.7,10.1 6.5,9.8 6.3,9.5 6.1,9.2 5.9,8.8 5.8,8.4 5.7,8 5.7,7.4 5.7,7 5.8,6.6 5.9,6.2 6,5.8 6.2,5.5 6.4,5.2 6.7,5 7,4.8 7.3,4.7 7.7,4.5 8,4.4 8.5,4.4 Z m 0,0.5 C 8.2,4.9 7.9,4.9 7.7,5 7.4,5.1 7.2,5.3 7,5.4 6.8,5.6 6.7,5.8 6.6,6.1 6.4,6.4 6.4,6.6 6.3,7 h 4 c 0,-0.3 0,-0.6 -0.1,-0.9 C 10.1,5.8 10,5.6 9.8,5.4 9.7,5.2 9.5,5.1 9.2,5 9,4.9 8.8,4.9 8.5,4.9 Z" />

</g>
      <g
         id="XMLID_4_">
	<path
   id="XMLID_2_"
   d="m 7.9,3.1 c 0,-0.1 0,-0.1 0,-0.2 0,0 0,-0.1 0.1,-0.1 0,0 0.1,-0.1 0.1,-0.1 0,0 0.1,0 0.2,0 0.1,0 0.1,0 0.2,0 0,0 0.1,0 0.1,0.1 0,0 0.1,0.1 0.1,0.1 0,0 0,0.1 0,0.2 0,0.1 0,0.1 0,0.2 0,0 0,0.1 -0.1,0.1 0,0 -0.1,0.1 -0.1,0.1 0,0 -0.1,0 -0.2,0 C 8.2,3.5 8.1,3.5 8,3.4 8,3.3 7.9,3.2 7.9,3.1 Z" />

</g>
    </g>
  </g>
</svg>
